Permutationnal Analysis of Terminus Ante and post QUem data • pataqu
…
We will simulate 5 new datasets with randomized datations. The true dates can be anytime between ptq and taq. We use quake_uniform.

a_q <- animals %>% 
  quake_uniform(tpq, taq, value, k=5, group=taxa)
#>  * working on a temporal sequence of 30 steps
#>  * launching 5 permutations

Let’s have a look to the results:

a_q
#> # A tibble: 600 × 4
#>        k group   x_new        y
#>    <int> <chr>   <dbl>    <dbl>
#>  1     1 cat   -225    -0.201  
#>  2     1 cat   -193.   -0.180  
#>  3     1 cat   -161.   -0.157  
#>  4     1 cat   -129.   -0.134  
#>  5     1 cat    -97.4  -0.109  
#>  6     1 cat    -65.5  -0.0836 
#>  7     1 cat    -33.6  -0.0567 
#>  8     1 cat     -1.72 -0.0296 
#>  9     1 cat     30.2  -0.00440
#> 10     1 cat     62.1   0.0213 
#> # … with 590 more rows
…
