…
We will simulate 5 new datasets with randomized datations. The true
dates can be anytime between ptq and taq. We use `quake_uniform`.

``` r
a_q <- animals %>% 
  quake_uniform(tpq, taq, value, k=5, group=taxa)
#>  * working on a temporal sequence of 30 steps
#>  * launching 5 permutations
```

Let’s have a look to the results:

``` r
a_q
#> # A tibble: 600 × 4
#>        k group   x_new        y
#>    <int> <chr>   <dbl>    <dbl>
#>  1     1 cat   -225    -0.202  
#>  2     1 cat   -193.   -0.181  
#>  3     1 cat   -161.   -0.158  
#>  4     1 cat   -129.   -0.135  
#>  5     1 cat    -97.4  -0.110  
#>  6     1 cat    -65.5  -0.0832 
#>  7     1 cat    -33.6  -0.0557 
#>  8     1 cat     -1.72 -0.0280 
#>  9     1 cat     30.2  -0.00229
#> 10     1 cat     62.1   0.0227 
#> # … with 590 more rows
…
