Prepare a data.frame for permutations — diachrony_uniform • pataqu
…
    df
data.frame() to work on

tpq, taq
colname to use for tpq and taq (when shaking_gaussian)

y
colname to use for the value of interest

    Examples

# let's say animals had different names
x <- animals %>% dplyr::rename(post=tpq, ante=taq, lsi=value)
x
#> # A tibble: 5,533 × 6
#>    taxa  site   us        post  ante      lsi
#>    <fct> <chr>  <chr>    <dbl> <dbl>    <dbl>
#>  1 frog  Alz-Br A-B_FO    -125   -50 -0.0352 
#>  2 frog  Ans-lM A-M_12      50   700 -0.123  
#>  3 frog  Ans-lM A-M_12      50   700 -0.129  
#>  4 frog  Ans-lM A-M_139    150   200  0.120  
#>  5 frog  Ans-lM An-M_15     50   700  0.0575 
#>  6 frog  Ans-lM A-M_150     50   200  0.0528 
#>  7 frog  Ans-lM A-M_150     50   200 -0.00804
#>  8 frog  Arl-Cp A-C_1061   -75   -40 -0.0760 
#>  9 frog  Arl-Cp A-C_4043   -40   -15 -0.00385
#> 10 frog  Arl-Cp A-C_7039   -15    60 -0.0608 
#> # … with 5,523 more rows
x %>% diachrony_uniform(post, ante, lsi)
#> # A tibble: 5,533 × 3
#>      tpq   taq        y
#>    <dbl> <dbl>    <dbl>
#>  1  -125   -50 -0.0352 
#>  2    50   700 -0.123  
#>  3    50   700 -0.129  
#>  4   150   200  0.120  
#>  5    50   700  0.0575 
#>  6    50   200  0.0528 
#>  7    50   200 -0.00804
#>  8   -75   -40 -0.0760 
#>  9   -40   -15 -0.00385
#> 10   -15    60 -0.0608 
#> # … with 5,523 more rows
…
