Predictor function to summarise results after shaking — predictor • pataqu
…
### bins
# when using bins the output depends of the function
p_breaks <- predictor_bins_breaks(df, x_pred)
# this returns factors
p_breaks
#> # A tibble: 100 × 2
#>    x_new        y
#>    <fct>    <dbl>
#>  1 [1,2]   0.353 
#>  2 [1,2]  -0.878 
#>  3 (2,3]   0.895 
#>  4 (3,4]   0.0941
#>  5 (4,5]  -0.902 
#>  6 (5,6]   0.482 
#>  7 (6,7]   0.170 
#>  8 (7,8]   0.352 
#>  9 (8,9]  -0.752 
#> 10 (9,10]  0.820 
#> # … with 90 more rows
…
