Introducing pataqu • pataqu
…
Same same but different.

shake: generates a new dataset

The code used above is exactly what shake_uniform is made of behind the curtain. You can check by yourself and type pataqu::shake_uniform (no brackets) in the console. Have a look to the different shakers with ?shake.

animals
#> # A tibble: 5,533 × 6
#>    taxa  site   us         tpq   taq    value
#>    <fct> <chr>  <chr>    <dbl> <dbl>    <dbl>
#>  1 frog  Alz-Br A-B_FO    -125   -50 -0.0352 
#>  2 frog  Ans-lM A-M_12      50   700 -0.123  
#>  3 frog  Ans-lM A-M_12      50   700 -0.129  
#>  4 frog  Ans-lM A-M_139    150   200  0.120  
#>  5 frog  Ans-lM An-M_15     50   700  0.0575 
#>  6 frog  Ans-lM A-M_150     50   200  0.0528 
#>  7 frog  Ans-lM A-M_150     50   200 -0.00804
#>  8 frog  Arl-Cp A-C_1061   -75   -40 -0.0760 
#>  9 frog  Arl-Cp A-C_4043   -40   -15 -0.00385
#> 10 frog  Arl-Cp A-C_7039   -15    60 -0.0608 
#> # … with 5,523 more rows
shake_uniform(animals, min=tpq, max=taq)
#> # A tibble: 5,533 × 7
#>    taxa  site   us         tpq   taq    value x_new
#>    <fct> <chr>  <chr>    <dbl> <dbl>    <dbl> <dbl>
#>  1 frog  Alz-Br A-B_FO    -125   -50 -0.0352  -72.0
#>  2 frog  Ans-lM A-M_12      50   700 -0.123   561. 
#>  3 frog  Ans-lM A-M_12      50   700 -0.129   129. 
#>  4 frog  Ans-lM A-M_139    150   200  0.120   196. 
#>  5 frog  Ans-lM An-M_15     50   700  0.0575  592. 
#>  6 frog  Ans-lM A-M_150     50   200  0.0528  105. 
#>  7 frog  Ans-lM A-M_150     50   200 -0.00804 147. 
#>  8 frog  Arl-Cp A-C_1061   -75   -40 -0.0760  -72.4
#>  9 frog  Arl-Cp A-C_4043   -40   -15 -0.00385 -35.0
#> 10 frog  Arl-Cp A-C_7039   -15    60 -0.0608   58.3
#> # … with 5,523 more rows
…
You can do several shakes at once with the function quake which is the real entry point of analyses with pataqu.

Here we will simulate only 5 new datasets for the sake of speed but you can generate thousands of them2 with randomized datations.

quake uses one of the shakers to generate entire datasets, possibly thousands of them. Here, we have tpq and taq dating so we will use shake_uniform and we have to specify the name of the columns3.

many_animals <- quake(animals, k=5, shaker=shake_uniform, min=tpq, max=taq)
#>  * quake animals using shake_uniform
#>  * launching 5 permutations

Let’s have a look to the results:

many_animals
#> # A tibble: 27,665 × 8
#>        k taxa  site   us         tpq   taq    value  x_new
#>    <int> <fct> <chr>  <chr>    <dbl> <dbl>    <dbl>  <dbl>
#>  1     1 frog  Alz-Br A-B_FO    -125   -50 -0.0352  -73.7 
#>  2     1 frog  Ans-lM A-M_12      50   700 -0.123   395.  
#>  3     1 frog  Ans-lM A-M_12      50   700 -0.129   249.  
#>  4     1 frog  Ans-lM A-M_139    150   200  0.120   192.  
#>  5     1 frog  Ans-lM An-M_15     50   700  0.0575  226.  
#>  6     1 frog  Ans-lM A-M_150     50   200  0.0528  129.  
#>  7     1 frog  Ans-lM A-M_150     50   200 -0.00804 127.  
#>  8     1 frog  Arl-Cp A-C_1061   -75   -40 -0.0760  -59.8 
#>  9     1 frog  Arl-Cp A-C_4043   -40   -15 -0.00385 -17.9 
#> 10     1 frog  Arl-Cp A-C_7039   -15    60 -0.0608    4.83
#> # … with 27,655 more rows
…
fit regression models on full range and then use them to predict y values using a common sequence of x values.

The first approach is the purpose of bin: the second is the purpose of fit_* functions.

bin: bins values and summarize

From now on, we will shift to animals_q which is a built it dataset of animals with 20 permutations and with dates ranging between 100 BC and 100 AD (ie -100 to 100). See ?animals_q.

bin discretizes x values using variations on cut yet we use the more convenient cut_number, cut_width and cut_interval that comes with ggplot2

Let’s bin y values (still names value) every 50 years and get the median per taxa: (todo implement this)

animals_binned <- bin(animals_q, y=value, by=taxa, fun=median)
animals_binned
#> # A tibble: 400 × 4
#>        k taxa  x_bin            y_bin
#>    <int> <fct> <fct>            <dbl>
#>  1     1 cat   [-75,-19.6]   -0.0275 
#>  2     1 cat   (-19.6,-2.48] -0.0810 
#>  3     1 cat   (-2.48,16.9]  -0.101  
#>  4     1 cat   (16.9,59.8]    0.0274 
#>  5     1 cat   (59.8,79.3]    0.0556 
#>  6     1 bird  [-75,-19.6]   -0.0383 
#>  7     1 bird  (-19.6,-2.48] -0.0310 
#>  8     1 bird  (-2.48,16.9]   0.00634
#>  9     1 bird  (16.9,59.8]    0.0372 
#> 10     1 bird  (59.8,79.3]   -0.0181 
#> # … with 390 more rows
…
We will see how to test that in the next section.

fit_*: fits a regression model and predict

You can also choose to define a regression model for each permutation and use it to predict fixed values. In other words, to gain more control over what spaghetti0 offered you before, almost for free.

Here come the fit_* family: (todo: handle x_pred, same refinement as above for bin)

animals_gam <- fit_gam(animals_q, y=value, by=taxa, x_pred=seq(-100, 100, 10))
#>  * fitting with gam(value ~ s(x_new, bs = "cs"))
animals_gam
#> # A tibble: 1,680 × 4
#>        k taxa    y_pred x_pred
#>    <int> <fct>    <dbl>  <dbl>
#>  1     1 frog  -0.329     -100
#>  2     1 frog  -0.280      -90
#>  3     1 frog  -0.232      -80
#>  4     1 frog  -0.183      -70
#>  5     1 frog  -0.134      -60
#>  6     1 frog  -0.0857     -50
#>  7     1 frog  -0.0395     -40
#>  8     1 frog  -0.00449    -30
#>  9     1 frog   0.00882    -20
#> 10     1 frog  -0.0176     -10
#> # … with 1,670 more rows
…
It’s likely pure nonsense here but we do it anyway. Do not try this at lab without statistical safety belts.

Perhaps, you have noticed the .keep_mod argument above and the additional columns in animals_origins4:

animals_origin
#> # A tibble: 1,680 × 6
#>        k taxa  mod      y_pred x_pred   adj_r2
#>    <int> <fct> <list>    <dbl>  <dbl>    <dbl>
#>  1     1 frog  <lm>   0.0219     -100 0.000421
#>  2     1 frog  <lm>   0.0173      -90 0.000421
#>  3     1 frog  <lm>   0.0134      -80 0.000421
#>  4     1 frog  <lm>   0.0103      -70 0.000421
#>  5     1 frog  <lm>   0.00771     -60 0.000421
#>  6     1 frog  <lm>   0.00565     -50 0.000421
#>  7     1 frog  <lm>   0.00401     -40 0.000421
#>  8     1 frog  <lm>   0.00271     -30 0.000421
#>  9     1 frog  <lm>   0.00167     -20 0.000421
#> 10     1 frog  <lm>   0.000791    -10 0.000421
#> # … with 1,670 more rows
…
# you could also access all components of $mod columns, use broom on it, etc. etc.

test_*: test for differences

Whether you used the bin or fit pathway you have now slices of x (eg a factor) and y values5. We will call bacl animals_binned from above.

animals_binned
#> # A tibble: 400 × 4
#>        k taxa  x_bin            y_bin
#>    <int> <fct> <fct>            <dbl>
#>  1     1 cat   [-75,-19.6]   -0.0275 
#>  2     1 cat   (-19.6,-2.48] -0.0810 
#>  3     1 cat   (-2.48,16.9]  -0.101  
#>  4     1 cat   (16.9,59.8]    0.0274 
#>  5     1 cat   (59.8,79.3]    0.0556 
#>  6     1 bird  [-75,-19.6]   -0.0383 
#>  7     1 bird  (-19.6,-2.48] -0.0310 
#>  8     1 bird  (-2.48,16.9]   0.00634
#>  9     1 bird  (16.9,59.8]    0.0372 
#> 10     1 bird  (59.8,79.3]   -0.0181 
#> # … with 390 more rows
…
And test for pairwise differences:

test_pairwise(animals_binned, x=x_bin, y=y_bin, by=taxa)
#>  * testing differences between pairs of taxa along 5 slices using wilcox_p
#> # A tibble: 30 × 3
#>    x_bin         pw                      p
#>    <fct>         <chr>               <dbl>
#>  1 [-75,-19.6]   cat ~ bird   0.0796      
#>  2 [-75,-19.6]   cat ~ mouse  0.0000000586
#>  3 [-75,-19.6]   cat ~ frog   0.0000000592
#>  4 [-75,-19.6]   bird ~ mouse 0.0000000670
#>  5 [-75,-19.6]   bird ~ frog  0.000000123 
#>  6 [-75,-19.6]   mouse ~ frog 0.00000156  
#>  7 (-19.6,-2.48] cat ~ bird   0.0000000674
#>  8 (-19.6,-2.48] cat ~ mouse  0.0000000670
#>  9 (-19.6,-2.48] cat ~ frog   0.0000000674
#> 10 (-19.6,-2.48] bird ~ mouse 0.0360      
#> # … with 20 more rows
…
